{
  "dino": {
    "server": {
      "port": 3030,
      "path": "/",
      "docs": "/api-docs",
      "cors": {
        "optionsSuccessStatus": 200,
        "methods": "GET"
      }
    },
    "swagger": {
      "config": "src/main/resources/routes.yml"
    }
  },
  "authentication": {
    "strategies": {
      "facebook-token": {
        "configuration": {
          "clientID": "FACEBOOK_APP_ID,",
          "clientSecret": "FACEBOOK_APP_SECRET"
        }
      },
      "google-token": {
        "configuration": {}
      },
      "api-key": {
        "configuration": {
          "header": "Authorization",
          "prefix": "Api-Key "
        }
      }
    },
    "authorities": {
      "custom": {}
    }
  }
}